<?xml version="1.0" encoding="utf-8"?>
<!-- Generator: Adobe Illustrator 15.1.0, SVG Export Plug-In . SVG Version: 6.00 Build 0)  -->
<!DOCTYPE svg PUBLIC "-//W3C//DTD SVG 1.1//EN" "http://www.w3.org/Graphics/SVG/1.1/DTD/svg11.dtd">
<svg version="1.1" id="Ebene_1" xmlns="http://www.w3.org/2000/svg" xmlns:xlink="http://www.w3.org/1999/xlink" x="0px" y="0px"
	 width="32px" height="32px" viewBox="0 0 32 32" enable-background="new 0 0 32 32" xml:space="preserve">
<path d="M30.075,8.964C31.008,8.964,32,8.289,32,7.039V1.925C32,0.992,31.325,0,30.075,0H1.925C0.992,0,0,0.675,0,1.925v5.114
	c0,0.933,0.675,1.925,1.925,1.925H30.075z M1.93,1.685h28.146c0.116,0,0.236,0,0.24,0.24v5.114c0,0.1,0,0.236-0.242,0.24H1.925
	c-0.116,0-0.236,0-0.24-0.24V1.925C1.685,1.81,1.685,1.689,1.93,1.685z"/>
<g>
	<path d="M7.021,20.482c0.933,0,1.925-0.676,1.925-1.926v-5.113c0-0.934-0.675-1.926-1.925-1.926H1.925
		C0.992,11.518,0,12.193,0,13.443v5.113c0,0.934,0.675,1.926,1.925,1.926H7.021z M1.93,13.203h5.091c0.116,0,0.236,0,0.24,0.24
		v5.113c0,0.1,0,0.236-0.242,0.24H1.925c-0.116,0-0.236,0-0.24-0.24v-5.113C1.685,13.328,1.685,13.207,1.93,13.203z"/>
	<path d="M30.075,20.482c0.933,0,1.925-0.676,1.925-1.926v-5.113c0-0.934-0.675-1.926-1.925-1.926h-17.15
		c-0.933,0-1.925,0.676-1.925,1.926v5.113c0,0.934,0.675,1.926,1.925,1.926H30.075z M12.93,13.203h17.146c0.116,0,0.236,0,0.24,0.24
		v5.113c0,0.1,0,0.236-0.242,0.24H12.925c-0.116,0-0.236,0-0.24-0.24v-5.113C12.685,13.328,12.685,13.207,12.93,13.203z"/>
</g>
<path d="M19.075,32C20.008,32,21,31.325,21,30.075v-5.114c0-0.933-0.675-1.925-1.925-1.925H1.925C0.992,23.036,0,23.711,0,24.961
	v5.114C0,31.008,0.675,32,1.925,32H19.075z M1.93,24.721h17.146c0.116,0,0.236,0,0.24,0.24v5.114c0,0.1,0,0.236-0.242,0.24H1.925
	c-0.116,0-0.236,0-0.24-0.24v-5.114C1.685,24.846,1.685,24.726,1.93,24.721z"/>
<path d="M30.997,26.49h-2.501v-2.501c0-0.553-0.45-1.003-1.003-1.003c-0.554,0-1.003,0.45-1.003,1.003v2.501h-2.501
	c-0.553,0-1.003,0.449-1.003,1.003c0,0.553,0.45,1.003,1.003,1.003h2.501v2.501c0,0.553,0.449,1.003,1.003,1.003
	c0.553,0,1.003-0.45,1.003-1.003v-2.501h2.501c0.553,0,1.003-0.45,1.003-1.003C32,26.939,31.55,26.49,30.997,26.49z"/>
</svg>
